                  epoch,         train/box_loss,         train/cls_loss,         train/dfl_loss,   metrics/precision(B),      metrics/recall(B),       metrics/mAP50(B),    metrics/mAP50-95(B),           val/box_loss,           val/cls_loss,           val/dfl_loss,                 lr/pg0,                 lr/pg1,                 lr/pg2
                      1,                 3.1979,                  4.295,                 4.0021,                0.00119,                 0.3549,                0.00688,                0.00159,                  3.096,                  4.605,                 4.0958,              0.0006612,              0.0006612,              0.0006612
                      2,                 2.7575,                 3.3845,                 3.1437,                0.25543,                0.10478,                0.07445,                0.03143,                 3.0842,                 4.3509,                 3.7551,              0.0013147,              0.0013147,              0.0013147
                      3,                 2.5026,                 2.7571,                 2.8225,                0.35658,                0.23832,                0.19441,                0.06869,                 2.5827,                 3.0303,                 3.5715,               0.001955,               0.001955,               0.001955
                      4,                  2.349,                 2.4789,                 2.6342,                 0.5136,                0.34771,                0.36525,                 0.1642,                 2.0856,                 2.3369,                 2.5108,              0.0019406,              0.0019406,              0.0019406
                      5,                 2.1857,                 2.2288,                 2.4637,                0.60732,                0.38264,                0.42812,                0.20642,                 1.8837,                 2.6442,                 2.3135,              0.0019406,              0.0019406,              0.0019406
                      6,                 2.0541,                 2.0877,                 2.3355,                0.60433,                0.48125,                0.52803,                0.23501,                  1.934,                  1.971,                 2.3198,              0.0019208,              0.0019208,              0.0019208
                      7,                 1.9594,                 1.9451,                 2.2441,                0.72876,                0.33128,                0.41296,                0.21159,                 1.8612,                  3.074,                 2.2392,               0.001901,               0.001901,               0.001901
                      8,                 1.8612,                 1.8238,                  2.136,                0.64058,                0.62661,                0.67773,                0.36195,                 1.6339,                 2.0773,                 1.9895,              0.0018812,              0.0018812,              0.0018812
                      9,                   1.78,                 1.7449,                 2.0584,                0.76625,                 0.5999,                0.69562,                0.37733,                 1.6369,                 1.5801,                 1.9777,              0.0018614,              0.0018614,              0.0018614
                     10,                   1.76,                 1.6832,                 2.0437,                0.68501,                0.63328,                 0.7036,                0.37729,                  1.634,                 1.5707,                 1.9622,              0.0018416,              0.0018416,              0.0018416
                     11,                 1.7036,                 1.5718,                 1.9605,                0.77871,                0.61941,                0.73547,                0.40544,                 1.6062,                 1.5224,                 1.9515,              0.0018218,              0.0018218,              0.0018218
                     12,                 1.6818,                 1.5541,                 1.9274,                0.79598,                0.71649,                0.79978,                0.47307,                 1.4476,                 1.2878,                 1.7838,               0.001802,               0.001802,               0.001802
                     13,                 1.6338,                 1.5278,                 1.8931,                0.76694,                0.67026,                0.77055,                0.45523,                 1.4769,                 1.3094,                 1.7955,              0.0017822,              0.0017822,              0.0017822
                     14,                 1.5971,                 1.4914,                 1.8516,                0.78997,                0.71289,                0.81583,                0.48995,                 1.4312,                 1.3169,                 1.7453,              0.0017624,              0.0017624,              0.0017624
                     15,                 1.5817,                 1.4318,                 1.8398,                0.81027,                0.69754,                0.80527,                0.49589,                 1.3726,                 1.3349,                 1.7072,              0.0017426,              0.0017426,              0.0017426
                     16,                 1.5564,                 1.4097,                 1.8231,                 0.8176,                0.75244,                0.82633,                0.47127,                 1.4786,                 1.2464,                 1.7763,              0.0017228,              0.0017228,              0.0017228
                     17,                 1.5329,                 1.3754,                 1.7858,                0.85445,                0.72265,                0.84775,                 0.5127,                 1.3968,                 1.1826,                 1.7397,               0.001703,               0.001703,               0.001703
                     18,                 1.5131,                 1.3834,                 1.7901,                0.80073,                0.76979,                0.83905,                0.51833,                 1.3562,                 1.2359,                 1.6849,              0.0016832,              0.0016832,              0.0016832
                     19,                  1.494,                 1.3311,                 1.7775,                0.88119,                0.82897,                0.90127,                0.58138,                 1.2878,                0.98163,                 1.6196,              0.0016634,              0.0016634,              0.0016634
                     20,                 1.4755,                 1.2692,                 1.7452,                0.89064,                0.81715,                0.90116,                0.55916,                 1.3525,                0.99823,                 1.6614,              0.0016436,              0.0016436,              0.0016436
                     21,                 1.4231,                 1.2295,                  1.702,                0.81132,                0.59476,                0.69468,                 0.4214,                 1.5555,                 1.4862,                 1.8883,              0.0016238,              0.0016238,              0.0016238
                     22,                 1.4102,                 1.2271,                 1.6917,                0.88166,                0.79972,                0.89584,                0.59022,                 1.2212,                0.95497,                 1.5499,               0.001604,               0.001604,               0.001604
                     23,                 1.4089,                 1.2151,                 1.6737,                0.90294,                0.80271,                0.90367,                0.60838,                 1.1888,                 0.9255,                 1.5335,              0.0015842,              0.0015842,              0.0015842
                     24,                 1.4042,                 1.2279,                 1.6834,                0.89768,                 0.8264,                0.91312,                0.60346,                 1.2243,                0.92332,                 1.5509,              0.0015644,              0.0015644,              0.0015644
                     25,                 1.3998,                  1.189,                 1.6583,                0.86864,                0.77658,                0.87407,                0.57528,                  1.233,                 1.0414,                 1.5585,              0.0015446,              0.0015446,              0.0015446
                     26,                 1.3914,                 1.2001,                 1.6716,                0.90565,                0.79371,                0.89857,                0.58367,                   1.25,                0.98815,                 1.5774,              0.0015248,              0.0015248,              0.0015248
                     27,                 1.3544,                 1.1422,                 1.6324,                0.91231,                0.83361,                0.91812,                0.62523,                 1.1488,                0.86038,                  1.488,               0.001505,               0.001505,               0.001505
                     28,                 1.3295,                  1.119,                 1.6075,                0.90202,                0.80329,                0.89878,                0.59776,                   1.23,                 0.9266,                 1.5592,              0.0014852,              0.0014852,              0.0014852
                     29,                 1.3355,                 1.1191,                 1.6152,                0.90618,                0.82846,                0.92001,                0.60842,                 1.1833,                0.88414,                 1.4907,              0.0014654,              0.0014654,              0.0014654
                     30,                 1.3358,                 1.0923,                 1.6237,                0.93437,                0.85311,                0.93763,                0.63451,                 1.1626,                0.82624,                 1.4974,              0.0014456,              0.0014456,              0.0014456
                     31,                 1.3224,                 1.1008,                  1.606,                0.89509,                0.85452,                0.93065,                0.64133,                 1.1381,                0.80175,                 1.4705,              0.0014258,              0.0014258,              0.0014258
                     32,                 1.2979,                 1.0621,                 1.5892,                0.92744,                0.85993,                0.94005,                0.66116,                  1.066,                0.79495,                 1.4263,               0.001406,               0.001406,               0.001406
                     33,                 1.3078,                 1.0926,                 1.6088,                0.91817,                0.85296,                0.93517,                0.64054,                 1.1468,                0.83732,                 1.4673,              0.0013862,              0.0013862,              0.0013862
                     34,                 1.3008,                 1.0593,                 1.5954,                0.92858,                0.83475,                0.93362,                0.64224,                 1.1106,                0.81125,                 1.4744,              0.0013664,              0.0013664,              0.0013664
                     35,                 1.2655,                 1.0392,                 1.5714,                0.92206,                0.88084,                0.95177,                0.67992,                 1.0364,                0.73959,                 1.3779,              0.0013466,              0.0013466,              0.0013466
                     36,                 1.2626,                 1.0343,                 1.5712,                0.93535,                0.86948,                0.94895,                 0.6618,                 1.0931,                0.76742,                 1.4222,              0.0013268,              0.0013268,              0.0013268
                     37,                 1.2593,                 1.0058,                 1.5607,                0.93802,                0.87673,                0.95015,                0.67423,                 1.0578,                0.73591,                 1.3905,               0.001307,               0.001307,               0.001307
                     38,                 1.2226,                 1.0059,                 1.5476,                0.91262,                 0.8637,                0.94174,                0.64906,                 1.1129,                0.78085,                  1.482,              0.0012872,              0.0012872,              0.0012872
                     39,                 1.2475,                 1.0029,                 1.5496,                0.92766,                0.89574,                0.95317,                0.69292,                 1.0067,                0.75762,                 1.3544,              0.0012674,              0.0012674,              0.0012674
                     40,                 1.2471,                 1.0135,                 1.5508,                0.93849,                0.87673,                0.95572,                0.68602,                  1.043,                0.73417,                 1.3824,              0.0012476,              0.0012476,              0.0012476
                     41,                 1.2286,                0.97809,                 1.5249,                0.92981,                0.89808,                0.96166,                0.70398,                0.98341,                0.69386,                 1.3506,              0.0012278,              0.0012278,              0.0012278
                     42,                 1.2151,                0.97073,                 1.5195,                0.93277,                 0.9121,                0.96168,                0.70597,                0.97275,                0.67592,                  1.329,               0.001208,               0.001208,               0.001208
                     43,                 1.1849,                  0.932,                 1.5105,                0.94644,                0.90241,                0.96226,                0.71127,                0.97534,                0.66472,                  1.329,              0.0011882,              0.0011882,              0.0011882
                     44,                 1.1692,                0.94481,                 1.4847,                0.91018,                0.85927,                 0.9412,                0.66932,                 1.0573,                0.71964,                 1.4205,              0.0011684,              0.0011684,              0.0011684
                     45,                 1.1764,                0.93115,                 1.4908,                0.92567,                0.89009,                0.95455,                0.67876,                 1.0426,                0.72356,                 1.3743,              0.0011486,              0.0011486,              0.0011486
                     46,                 1.1862,                0.95123,                 1.5004,                0.94445,                0.91688,                0.96779,                0.71158,                0.97389,                0.64146,                 1.3234,              0.0011288,              0.0011288,              0.0011288
                     47,                 1.1645,                0.94466,                 1.4808,                0.94236,                0.90447,                0.96289,                0.71071,                 0.9659,                0.67641,                 1.3073,               0.001109,               0.001109,               0.001109
                     48,                 1.1654,                0.91293,                 1.4692,                0.94278,                0.88853,                0.96183,                0.70085,                0.99225,                0.66028,                 1.3442,              0.0010892,              0.0010892,              0.0010892
                     49,                 1.1485,                0.89547,                  1.496,                0.94903,                0.90851,                0.96692,                0.72361,                0.94033,                0.63063,                 1.3058,              0.0010694,              0.0010694,              0.0010694
                     50,                 1.1478,                0.88709,                 1.4711,                0.94382,                0.91269,                0.96686,                0.71601,                0.96126,                0.64813,                 1.3175,              0.0010496,              0.0010496,              0.0010496
                     51,                 1.1218,                0.86847,                 1.4429,                0.94287,                0.92604,                0.97665,                0.73426,                0.92394,                0.58994,                 1.2842,              0.0010298,              0.0010298,              0.0010298
                     52,                 1.1515,                0.89492,                 1.4657,                0.96397,                0.92076,                0.97732,                 0.7235,                  0.956,                0.59927,                 1.3026,                0.00101,                0.00101,                0.00101
                     53,                 1.1076,                0.85237,                 1.4271,                0.95437,                0.92392,                0.97521,                0.73811,                0.90194,                 0.5932,                 1.2644,              0.0009902,              0.0009902,              0.0009902
                     54,                  1.127,                0.88052,                 1.4556,                0.94793,                0.92655,                0.97583,                0.73483,                0.91351,                0.59536,                 1.2877,              0.0009704,              0.0009704,              0.0009704
                     55,                 1.1112,                0.85275,                 1.4338,                0.96952,                0.91477,                0.97869,                 0.7363,                0.90389,                0.58367,                 1.2643,              0.0009506,              0.0009506,              0.0009506
                     56,                  1.096,                0.82633,                 1.4234,                0.95611,                0.92874,                0.97569,                0.74202,                0.90038,                0.57887,                 1.2624,              0.0009308,              0.0009308,              0.0009308
                     57,                 1.1013,                0.83425,                 1.4272,                0.94755,                0.92783,                0.97494,                0.74592,                 0.8809,                0.58314,                 1.2473,               0.000911,               0.000911,               0.000911
                     58,                 1.1139,                0.85571,                 1.4333,                0.95746,                0.92501,                0.97602,                0.73916,                0.90689,                0.56983,                 1.2759,              0.0008912,              0.0008912,              0.0008912
                     59,                 1.0869,                0.82211,                 1.4209,                0.96084,                0.93243,                0.97744,                  0.752,                0.86794,                0.56686,                 1.2342,              0.0008714,              0.0008714,              0.0008714
                     60,                 1.0697,                0.83433,                 1.4181,                0.96066,                0.92964,                0.98046,                0.76371,                 0.8452,                0.54114,                 1.2241,              0.0008516,              0.0008516,              0.0008516
                     61,                 1.0599,                0.81791,                 1.3959,                0.95688,                0.94556,                0.98437,                 0.7605,                0.85334,                0.53165,                 1.2297,              0.0008318,              0.0008318,              0.0008318
                     62,                 1.0785,                0.81936,                  1.408,                0.95638,                0.94658,                0.98361,                0.76271,                0.85549,                0.52351,                 1.2302,               0.000812,               0.000812,               0.000812
                     63,                 1.0521,                  0.806,                 1.3969,                0.95498,                0.93631,                0.97885,                0.75707,                0.85577,                0.54878,                 1.2225,              0.0007922,              0.0007922,              0.0007922
                     64,                 1.0596,                0.80212,                 1.3898,                0.94681,                0.95085,                0.98231,                0.76878,                0.83214,                0.52944,                 1.2012,              0.0007724,              0.0007724,              0.0007724
                     65,                 1.0301,                0.76762,                 1.3788,                0.96999,                0.94761,                0.98651,                0.77807,                0.82145,                0.50522,                 1.1999,              0.0007526,              0.0007526,              0.0007526
                     66,                 1.0333,                0.77348,                 1.3766,                0.95571,                 0.9435,                0.98197,                0.76104,                0.86875,                 0.5339,                 1.2464,              0.0007328,              0.0007328,              0.0007328
                     67,                 1.0373,                0.77855,                 1.3691,                0.96275,                 0.9435,                0.98431,                0.75968,                0.85782,                0.53223,                 1.2239,               0.000713,               0.000713,               0.000713
                     68,                 1.0143,                0.76024,                 1.3525,                0.96408,                0.94042,                0.98443,                0.77611,                 0.8097,                0.52461,                 1.1891,              0.0006932,              0.0006932,              0.0006932
                     69,                 1.0319,                0.78285,                 1.3751,                0.96261,                0.95215,                0.98626,                0.77514,                0.81932,                0.50999,                 1.1901,              0.0006734,              0.0006734,              0.0006734
                     70,                 1.0298,                0.76356,                 1.3663,                0.96403,                0.94969,                0.98755,                0.78023,                0.80734,                0.49301,                 1.1908,              0.0006536,              0.0006536,              0.0006536
                     71,                 1.0332,                0.78103,                 1.3793,                0.96267,                0.95369,                0.98783,                0.78408,                 0.7952,                0.48895,                  1.173,              0.0006338,              0.0006338,              0.0006338
                     72,                 1.0093,                0.73454,                 1.3612,                0.96682,                0.94813,                0.98668,                0.78613,                0.79449,                0.48474,                 1.1712,               0.000614,               0.000614,               0.000614
                     73,                 1.0047,                0.75857,                 1.3637,                0.96715,                0.95172,                 0.9879,                0.79198,                0.78006,                0.47266,                 1.1628,              0.0005942,              0.0005942,              0.0005942
                     74,                 1.0257,                0.76682,                 1.3785,                  0.971,                0.95737,                0.98893,                0.79686,                0.76485,                0.47809,                 1.1583,              0.0005744,              0.0005744,              0.0005744
                     75,                 1.0056,                0.74453,                 1.3497,                0.96258,                0.95378,                0.98822,                0.79533,                0.76819,                0.47055,                 1.1558,              0.0005546,              0.0005546,              0.0005546
                     76,                 1.0114,                0.74787,                 1.3709,                0.97407,                 0.9548,                0.98867,                0.79666,                0.77149,                0.47114,                 1.1589,              0.0005348,              0.0005348,              0.0005348
                     77,                0.98764,                0.72588,                  1.353,                0.96767,                0.96199,                0.98877,                0.79127,                0.78368,                0.47367,                 1.1682,               0.000515,               0.000515,               0.000515
                     78,                0.98244,                0.73551,                 1.3458,                0.97601,                0.96137,                0.99006,                 0.7986,                0.75024,                0.46422,                 1.1383,              0.0004952,              0.0004952,              0.0004952
                     79,                0.98418,                0.72741,                 1.3374,                0.97295,                0.96082,                0.98997,                0.80077,                0.74875,                0.46093,                 1.1354,              0.0004754,              0.0004754,              0.0004754
                     80,                0.96601,                0.71004,                 1.3389,                0.97516,                 0.9678,                 0.9903,                0.80686,                0.74553,                0.44551,                 1.1323,              0.0004556,              0.0004556,              0.0004556
                     81,                0.95696,                0.71578,                 1.3361,                0.97465,                0.96778,                0.99137,                 0.8105,                0.73384,                0.44132,                  1.122,              0.0004358,              0.0004358,              0.0004358
                     82,                 0.9602,                0.69372,                 1.3164,                0.97901,                0.96507,                0.99131,                0.80943,                0.73523,                0.44825,                 1.1239,               0.000416,               0.000416,               0.000416
                     83,                0.97044,                0.69758,                  1.339,                0.97288,                0.97227,                0.99117,                0.81285,                0.72701,                0.43713,                 1.1236,              0.0003962,              0.0003962,              0.0003962
                     84,                0.93979,                0.69312,                 1.3106,                0.97898,                0.96764,                0.99182,                0.80946,                0.73328,                  0.429,                 1.1279,              0.0003764,              0.0003764,              0.0003764
                     85,                0.94573,                 0.7012,                 1.3192,                0.97542,                0.97124,                0.99143,                0.80863,                0.74043,                0.44058,                 1.1194,              0.0003566,              0.0003566,              0.0003566
                     86,                0.93616,                0.67769,                 1.3069,                0.97707,                0.97278,                0.99194,                0.81275,                0.72653,                0.43566,                 1.1138,              0.0003368,              0.0003368,              0.0003368
                     87,                0.95093,                0.68833,                 1.3163,                 0.9777,                0.96832,                0.99106,                0.81682,                0.71051,                 0.4235,                 1.1128,               0.000317,               0.000317,               0.000317
                     88,                0.94525,                0.66957,                 1.3051,                 0.9782,                0.96918,                0.99128,                0.81939,                0.70468,                0.42815,                 1.1049,              0.0002972,              0.0002972,              0.0002972
                     89,                0.92349,                 0.6856,                 1.3042,                0.98481,                0.96555,                0.99202,                0.81896,                0.71324,                0.42026,                  1.106,              0.0002774,              0.0002774,              0.0002774
                     90,                0.92726,                0.67459,                 1.3021,                0.98181,                 0.9705,                0.99225,                0.82124,                0.70202,                0.41395,                 1.0969,              0.0002576,              0.0002576,              0.0002576
                     91,                0.79995,                0.49906,                 1.1853,                0.97937,                0.96867,                 0.9913,                 0.8174,                0.70992,                0.43198,                 1.1042,              0.0002378,              0.0002378,              0.0002378
                     92,                0.78236,                0.47064,                 1.1683,                0.98227,                0.96746,                0.99225,                0.82444,                0.69383,                  0.412,                 1.0932,               0.000218,               0.000218,               0.000218
                     93,                0.76831,                0.46935,                   1.16,                0.98715,                 0.9697,                0.99253,                0.83043,                0.67981,                0.40463,                 1.0799,              0.0001982,              0.0001982,              0.0001982
                     94,                0.75293,                0.45348,                  1.148,                0.97929,                 0.9774,                0.99293,                0.83464,                0.67453,                0.40113,                 1.0791,              0.0001784,              0.0001784,              0.0001784
                     95,                0.76184,                0.44892,                 1.1517,                 0.9834,                0.97378,                0.99257,                0.83033,                0.67972,                0.40687,                 1.0846,              0.0001586,              0.0001586,              0.0001586
                     96,                0.74741,                0.44176,                 1.1357,                0.97996,                 0.9795,                0.99313,                0.83662,                0.66522,                0.39571,                 1.0698,              0.0001388,              0.0001388,              0.0001388
                     97,                0.74939,                0.44035,                 1.1417,                0.98493,                 0.9734,                0.99292,                0.84072,                  0.657,                0.39195,                 1.0662,               0.000119,               0.000119,               0.000119
                     98,                0.74036,                0.44154,                 1.1406,                0.98544,                0.97324,                0.99283,                0.83606,                  0.663,                0.39447,                 1.0676,               9.92e-05,               9.92e-05,               9.92e-05
                     99,                0.74672,                0.43528,                 1.1387,                0.98549,                0.97704,                  0.993,                  0.839,                0.65336,                0.39095,                 1.0612,               7.94e-05,               7.94e-05,               7.94e-05
                    100,                0.72912,                0.44178,                 1.1296,                0.98237,                0.98151,                  0.993,                0.84229,                 0.6486,                0.38772,                 1.0583,               5.96e-05,               5.96e-05,               5.96e-05
